[gd_scene load_steps=3 format=2]

[ext_resource path="res://default_theme.tres" type="Theme" id=1]
[ext_resource path="res://Scenes/UI/ExitDialog/ExitDialog.gd" type="Script" id=2]

[node name="ExitDialog" type="ConfirmationDialog" groups=[
"exit_dialog",
]]
anchor_left = 0.5
anchor_top = 0.5
anchor_right = 0.5
anchor_bottom = 0.5
margin_left = -100.0
margin_top = -37.5
margin_right = 100.0
margin_bottom = 37.5
theme = ExtResource( 1 )
popup_exclusive = true
window_title = "notification"
dialog_text = "directive(\"confirm_exit\")"
script = ExtResource( 2 )
__meta__ = {
"_edit_use_anchors_": false
}
[connection signal="confirmed" from="." to="." method="_on_ExitDialog_confirmed"]
