[gd_scene load_steps=7 format=2]

[ext_resource path="res://Assets/Sprites/stasis-pod.png" type="Texture" id=1]
[ext_resource path="res://Scenes/StasisPod/PowerMeter.tscn" type="PackedScene" id=2]
[ext_resource path="res://Scenes/StasisPod/HealthMeter.tscn" type="PackedScene" id=3]
[ext_resource path="res://Scenes/StasisPod/StasisPod.gd" type="Script" id=4]

[sub_resource type="SpriteFrames" id=1]
animations = [ {
"frames": [ ExtResource( 1 ) ],
"loop": true,
"name": "default",
"speed": 5.0
} ]

[sub_resource type="RectangleShape2D" id=2]
extents = Vector2( 64, 32 )

[node name="StasisPod" type="Node2D"]
script = ExtResource( 4 )

[node name="AnimatedSprite" type="AnimatedSprite" parent="."]
frames = SubResource( 1 )

[node name="PowerMeter" parent="." instance=ExtResource( 2 )]
position = Vector2( -51.8173, 7.26142 )
scale = Vector2( 0.129019, 0.103604 )

[node name="ProgressBar" parent="PowerMeter/ProgressBar" index="0"]
value = 30.0
tint_progress = Color( 1, 0, 0, 1 )

[node name="HealthMeter" parent="." instance=ExtResource( 3 )]
position = Vector2( -51.8173, 12.2614 )
scale = Vector2( 0.129, 0.104 )

[node name="ProgressBar" parent="HealthMeter/ProgressBar" index="0"]
value = 10.0
tint_progress = Color( 0, 1, 0, 1 )

[node name="Area2D" type="Area2D" parent="."]
collision_layer = 4

[node name="CollisionShape2D" type="CollisionShape2D" parent="Area2D"]
shape = SubResource( 2 )

[editable path="PowerMeter"]

[editable path="PowerMeter/ProgressBar"]

[editable path="HealthMeter"]

[editable path="HealthMeter/ProgressBar"]
