[gd_scene load_steps=4 format=2]

[ext_resource path="res://Scenes/UI/ProgressBar/ProgressBar.tscn" type="PackedScene" id=1]
[ext_resource path="res://Assets/Tilesets/ui/squareGreen.png" type="Texture" id=2]
[ext_resource path="res://Scenes/FuelCrystal/MiningProgressBar.gd" type="Script" id=3]

[node name="MiningProgressBar" instance=ExtResource( 1 )]
script = ExtResource( 3 )

[node name="ProgressBar" parent="." index="0"]
margin_left = -23.8793
margin_top = -4.0267
margin_right = 24.1207
margin_bottom = 3.9733
texture_progress = ExtResource( 2 )

[node name="Light2D" parent="." index="1"]
visible = false
