[gd_scene load_steps=2 format=2]

[ext_resource path="res://Src/DayNightCycle/DayNightCycle/DayNightCycle.gd" type="Script" id=1]

[node name="DayNightCycle" type="CanvasModulate"]
script = ExtResource( 1 )

[node name="ColorTransitionTween" type="Tween" parent="."]
