[gd_scene load_steps=4 format=2]

[ext_resource path="res://Assets/Tilesets/ui/glassPanel.png" type="Texture" id=1]
[ext_resource path="res://Assets/Tilesets/ui/squareWhite.png" type="Texture" id=2]
[ext_resource path="res://Scenes/UI/ProgressBar/ProgressBar.gd" type="Script" id=3]

[node name="ProgressBar" type="Node2D"]
script = ExtResource( 3 )

[node name="ProgressBar" type="TextureProgress" parent="."]
margin_right = 391.0
margin_bottom = 40.0
value = 50.0
texture_under = ExtResource( 1 )
texture_progress = ExtResource( 2 )
nine_patch_stretch = true
stretch_margin_left = 4
stretch_margin_top = 4
stretch_margin_right = 4
stretch_margin_bottom = 4
__meta__ = {
"_edit_use_anchors_": false
}

[node name="Light2D" type="Light2D" parent="."]
position = Vector2( 195.472, 20 )
scale = Vector2( 20.4426, 1.6 )
texture = ExtResource( 2 )
energy = 1.1
