[gd_scene load_steps=3 format=2]

[ext_resource path="res://Assets/Tilesets/main_tilesheet.png" type="Texture" id=1]
[ext_resource path="res://Scenes/TemplateSprite/TemplateSprite.gd" type="Script" id=2]

[node name="TemplateSprite" type="Sprite"]
texture = ExtResource( 1 )
hframes = 27
vframes = 39
frame = 165
script = ExtResource( 2 )
