[gd_scene load_steps=5 format=2]

[ext_resource path="res://Assets/Textures/mars.png" type="Texture" id=1]
[ext_resource path="res://addons/zylann.atmosphere/planet_atmosphere.tscn" type="PackedScene" id=2]

[sub_resource type="SphereMesh" id=1]
radius = 1.5
height = 3.0

[sub_resource type="SpatialMaterial" id=2]
albedo_texture = ExtResource( 1 )

[node name="Planet" type="Spatial"]

[node name="PlanetMesh" type="MeshInstance" parent="."]
transform = Transform( 0.890164, 0, -0.455635, 0, 1, 0, 0.455635, 0, 0.890164, 0, 0, 0 )
mesh = SubResource( 1 )
material/0 = SubResource( 2 )

[node name="PlanetAtmosphere" parent="." instance=ExtResource( 2 )]
