[gd_scene load_steps=2 format=2]

[ext_resource path="res://Scenes/UI/ScrollingRichTextLabel.gd" type="Script" id=1]

[node name="ScrollingRichTextLabel" type="RichTextLabel"]
margin_right = 40.0
margin_bottom = 40.0
script = ExtResource( 1 )
__meta__ = {
"_edit_use_anchors_": false
}
