[gd_scene load_steps=4 format=2]

[ext_resource path="res://Scenes/CrystalShards/CrystalShards.gd" type="Script" id=1]
[ext_resource path="res://Scenes/TemplateSprite/TemplateSprite.tscn" type="PackedScene" id=2]

[sub_resource type="RectangleShape2D" id=1]
extents = Vector2( 32, 32 )

[node name="CrystalShards" type="Node2D"]
script = ExtResource( 1 )

[node name="TemplateSprite" parent="." instance=ExtResource( 2 )]
frame = 725

[node name="Area2D" type="Area2D" parent="."]
visible = false
collision_layer = 4

[node name="CollisionShape2D" type="CollisionShape2D" parent="Area2D"]
shape = SubResource( 1 )
disabled = true

[connection signal="body_entered" from="Area2D" to="." method="_on_Area2D_body_entered"]
