[gd_scene load_steps=4 format=2]

[ext_resource path="res://Scenes/Credits/Credits.gd" type="Script" id=1]
[ext_resource path="res://default_theme.tres" type="Theme" id=2]
[ext_resource path="res://Assets/Shaders/CRTShader.tscn" type="PackedScene" id=3]

[node name="Credits" type="Control"]
anchor_right = 1.0
anchor_bottom = 1.0
theme = ExtResource( 2 )
script = ExtResource( 1 )
__meta__ = {
"_edit_use_anchors_": false
}

[node name="RichTextLabel" type="RichTextLabel" parent="."]
anchor_left = 0.5
anchor_top = 0.5
anchor_right = 0.5
anchor_bottom = 0.5
margin_left = -400.0
margin_top = -120.5
margin_right = 400.0
margin_bottom = 120.5
rect_min_size = Vector2( 400, 0 )
bbcode_enabled = true
bbcode_text = "[center]
Rusty Robot
a 7DRL entry by 
Peter Kingsbury

special thanks goes to
Sarah and Ashlyn

assets by kenney.nl

this game would not be 
possible without Godot Engine
[/center]"
text = "
Rusty Robot
a 7DRL entry by 
Peter Kingsbury

special thanks goes to
Sarah and Ashlyn

assets by kenney.nl

this game would not be 
possible without Godot Engine
"
fit_content_height = true
scroll_active = false
__meta__ = {
"_edit_use_anchors_": false
}

[node name="RichTextLabel2" type="RichTextLabel" parent="."]
anchor_left = 0.5
anchor_top = 1.0
anchor_right = 0.5
anchor_bottom = 1.0
margin_left = -400.0
margin_top = -54.0
margin_right = 400.0
rect_min_size = Vector2( 400, 0 )
bbcode_enabled = true
bbcode_text = "[center]
press any key
[/center]"
text = "
press any key
"
fit_content_height = true
scroll_active = false
__meta__ = {
"_edit_use_anchors_": false
}

[node name="CRTShader" parent="." instance=ExtResource( 3 )]
